{
  "startDate" : "2022-01-02",
  "piHighscore" : "54",
  "resetCounter" : "18",
  "discordToken" : "TOKEN",
  "guildID" : "253355867938750485",
  "roleChannelID" : "836356580978458656",
  "registrationChannelID" : "868181076940566568",
  "mutedChannelID" : "878190010547986462",
  "victimReportChannelID" : "879821224505647135",
  "logChannelID" : "879821224505647135",
  "memberRoleID" : "867966212670369793",
  "mutedRoleID" : "927909531554574377",
  "kickReason" : "Failed to register in time",
  "registrationGracePeriod" : "900000",
  "modRoleID" : "253359737641369610",
  "sheepitAdminRoleIDs" : [ "307670315973214210", "292834813210001408" ],
  "assignableRoleIDs" : [ "253360623264464897", "285781381169020928", "414014143125782538", "414580077066584102", "414014055674544128", "414014109038804992", "418514483737264138", "414582030332854272", "414014179360505857", "418513027881631756", "418513237592768523", "418514028130729984", "478789226759192578", "492596117033189386", "839357005134823425", "839357005134823425", "872263111598559284", "872262532079943700" ],
  "statsEndpoint" : "https://www.sheepit-renderfarm.com/api.php?action=global_stats",
  "messageConfig" : {
    "messageTitle" : "SheepleBot",
    "messageAuthor" : "SheepIt Render Farm",
    "messageURL" : "https://sheepit-renderfarm.com",
    "messageIconURL" : "https://sheepit-renderfarm.com/media/image/title.png",
    "messageThumbnailURL" : "https://cdn.discordapp.com/attachments/801190814050156584/838405716179025950/sheepit-logo_sheep-white_big_grey.png",
    "messageColor" : "#e06d58"
  },
  "commands" : [ {
    "name" : "sheeple-help",
    "output" : "Here is a list of all available commands: \n%s",
    "requiredPermission" : "MESSAGE_SEND",
    "description" : "List all available commands",
    "category" : "MISC"
  }, {
    "name" : "sheeple-principle-sarcastic",
    "output" : "shEepiT iS aBouT volUmE nOt spEeD\n",
    "requiredPermission" : "MESSAGE_SEND",
    "description" : "REEEEEEEEE",
    "category" : "MISC"
  }, {
    "name" : "sheeple-getstarted",
    "output" : "So you want to start rendering frames and getting points. Welcome! **Here's a quick start guide:**\n1. Download the client here: https://www.sheepit-renderfarm.com/getstarted\n\n2. Create an account on https://www.sheepit-renderfarm.com/user/register\n\n3. Put your credentials into the client, select a render device and press Start.\n\nIf you want to learn more about the point system, make sure to check out the FAQ",
    "requiredPermission" : "MESSAGE_SEND",
    "description" : "Quickstart Guide",
    "category" : "MISC"
  }, {
    "name" : "arrest",
    "output" : "",
    "requiredPermission" : "MANAGE_ROLES",
    "description" : "Put a victim into confinement and delete all of their recent messages",
    "category" : "SERVER_MANAGEMENT"
  }, {
    "name" : "sheeple-principle",
    "output" : "SheepIt is about Volume, not Speed",
    "requiredPermission" : "MESSAGE_SEND",
    "description" : "Why things work the way they do",
    "category" : "MISC"
  }, {
    "name" : "sheeple-sim",
    "output" : "SheepIt can render simulations if you upload your cache alongside the blend file. \nStep 1 : Bake physics\nStep 2 : Copy physics cache folder into project folder containing the .blend file\nStep 3 :  In the .blend file, link to the physics cache to its new location\nStep 4 : save the blend file with 'relative paths'\nStep 5 : Verify that the project folder it under 2GB\nStep 6 : ZIP the project folder and upload to sheepit\n\nFurther Reading: \nhttps://www.sheepit-renderfarm.com/faq#fluids\nhttps://www.sheepit-renderfarm.com/forum/viewtopic.php?f=8&t=186",
    "requiredPermission" : "MESSAGE_SEND",
    "description" : "How to render simulations on SheepIt",
    "category" : "MISC"
  }, {
    "name" : "sheeple-faq",
    "output" : "Let me take you to the FAQ: https://www.sheepit-renderfarm.com/faq",
    "requiredPermission" : "MESSAGE_SEND",
    "description" : "Get a link to the FAQ",
    "category" : "MISC"
  }, {
    "name" : "sheeple-points",
    "output" : "Points are used to order the list of projects. The more points you have the higher priority your project will have.\nYou will earn points by sharing your computer to help rendering. But you will lose some when someone renders one of your frames.\n\n**How points are calculated:**\n• **remove** 10 * power rating * render time (in minutes) when ordering a frame.\n• **add** 38 * power rating * render time (in minutes) when rendering a frame.\n• If the owner of a project renders a frame, no penalty is made and it gets 30% of the adding points (The 30% penalty is to avoid \"farming\".).\n\nThe render time is not the actual duration on your machine (since that would it would give slower machines an advantage). Instead, it's scaled to a 'reference machine', which is currently an Intel Core i5-9600K @ 3.70GHz x6.\n\n**Examples:**\nFor example, for a 100 frame long project at 15min/frame(on the reference machine), the owner will lose 56,250 points.\nNo matter which computer the frame is rendered on, it will earn the same amount of points.\nExplanation with\n200% machine: 100 * 2.0 * 7.5 * 38 = 56,250\n25% machine: 100 * 0.25 * 60 * 37,5 = 56,250",
    "requiredPermission" : "MESSAGE_SEND",
    "description" : "How do points work?",
    "category" : "MISC"
  }, {
    "name" : "sheeple-reset",
    "output" : "It's been **%d** days since someone asked about running SheepIt on a RaspberryPi.\nCounter reset to 0\n\nSheepit only supports official builds of Blender, of which there are currently none for ARM Processors. Apart from that, the Pi is too weak to render most frames in under 2 hours. With a power rating of 4%%, a normal frame (30 minutes on the reference machine) would take 12,5h.",
    "requiredPermission" : "MANAGE_CHANNEL",
    "description" : "Reset days counter",
    "category" : "PI"
  }, {
    "name" : "snitch",
    "output" : "",
    "requiredPermission" : "MANAGE_ROLES",
    "description" : "Show some general info about a server member",
    "category" : "SERVER_MANAGEMENT"
  }, {
    "name" : "copy-history",
    "output" : "",
    "requiredPermission" : "ADMINISTRATOR",
    "description" : "Copies message history from one channel to another one that the bot can see",
    "category" : "SERVER_MANAGEMENT"
  }, {
    "name" : "sheeple-twit",
    "output" : "%s tried to reset the counter. They will be ignored for 30 minutes. The counter remains unchanged",
    "requiredPermission" : "MANAGE_CHANNEL",
    "description" : "Troll deterrent",
    "category" : "MISC"
  }, {
    "name" : "sheeple-prep",
    "output" : "Before you upload your project to Sheepit, make sure to take the following steps:\n\nStep 1 : Create a project folder\nStep 2 : Move a copy of the blend file and any extra files it needs into that folder. **This is especially important if you use HDRIs, image sequences, phsyics caches etc as those cannot be packed into the blend file!**\nStep 3 : Open the blend file, and make sure all of those resources are linked to that new location\nStep 4 : Make paths relative: File->External Data->Make All Paths Relative\nStep 5 : Save your project (preferably with Compression enabled: File -> Save As -> Cogwheel)\nStep 6 : Zip project folder and submit it to Sheepit\n\nFor more information on how to create and add the physics cache run `/sheeple-sim`",
    "requiredPermission" : "MESSAGE_SEND",
    "description" : "How to prepare your project for Sheepit",
    "category" : "MISC"
  }, {
    "name" : "sheeple-renderkey",
    "output" : "Render keys allow other people to render frames and earn the points for you without giving them your real password.\nThey will be able to login to the render client, but they will not be able to login to the website.\nTo use it, give them your username and the render key.\nIt is also recommended that you use your render key on your own clients too instead of your password!\n\nTo find your render key go to:\nyour account page > edit profile > Render keys",
    "requiredPermission" : "MESSAGE_SEND",
    "description" : "Learn about SheepIts renderkeys feature",
    "category" : "MISC"
  }, {
    "name" : "sheeple-multigpu",
    "output" : "At the moment only one GPU is supported per session. But if you really want to use multiple GPUs you can launch more than one session (by using multiple command line clients). Further Information: https://www.sheepit-renderfarm.com/forum/viewtopic.php?f=8&t=61",
    "requiredPermission" : "MESSAGE_SEND",
    "description" : "Can I render with two GPUs?",
    "category" : "MISC"
  }, {
    "name" : "sheeple-count",
    "output" : "It's been **%d** days since someone asked about running SheepIt on a RaspberryPi.",
    "requiredPermission" : "MESSAGE_SEND",
    "description" : "Count days since last incident",
    "category" : "PI"
  }, {
    "name" : "guild-stats",
    "output" : "",
    "requiredPermission" : "MANAGE_ROLES",
    "description" : "Show some gathered statistics about the server",
    "category" : "SERVER_MANAGEMENT"
  }, {
    "name" : "sheeple-sheeple",
    "output" : "",
    "requiredPermission" : "MESSAGE_SEND",
    "description" : "Where Sheeple came from (not really)",
    "category" : "MISC"
  }, {
    "name" : "wipe",
    "output" : "",
    "requiredPermission" : "MANAGE_ROLES",
    "description" : "If you can execute it you know what it does",
    "category" : "SERVER_MANAGEMENT"
  }, {
    "name" : "sheeple-stats",
    "output" : "Webserver Load: %s\nWebserver Overload: %s\nFrames remaining: %s\nFrames rendering: %s\nConnected clients: %s\nActive Projects: %s",
    "requiredPermission" : "MESSAGE_SEND",
    "description" : "Show statistics about the farm",
    "category" : "MISC"
  }, {
    "name" : "lobby-button",
    "output" : "",
    "requiredPermission" : "MANAGE_SERVER",
    "description" : "Adds a button for registration",
    "category" : "SERVER_MANAGEMENT"
  }, {
    "name" : "shutdown",
    "output" : "",
    "requiredPermission" : "MANAGE_SERVER",
    "description" : "Stops the bot",
    "category" : "BOT_MANAGEMENT"
  }, {
      "name" : "sheeple-nojob",
      "output" : "***Why does my client say there are no jobs available?***\n\nNot every machine is fit to render every project. If your client displays ***\"No job available. Will try again at...\"***, go to your profile page and click on your session. Once there, you can scroll down a bit to see a table of active projects and why they may or may not be renderable by your machine.",
      "requiredPermission" : "MESSAGE_SEND",
      "description" : "There are no jobs in Ba Sing Se",
      "category" : "MISC"
    }]
}